Manipulación de datos – Félix Millán
…
Vemos al inicio que la tabla planes está conformada por 3322 observaciones (filas), en relación a 9 variables (columnas), entre las que tenemos: ID del ala trasera (tailnum), año, tipo de motor, fabricante, modelo, motores, asientos y velocidad. Esta primera visualización también nos aporta información sobre el tipo de variables. Por ejemplo, el ID del ala trasera es una variable caracter, en tanto que el numero de asientos es una variable numérica.

Select

Esta función permite seleccionar variables específicas de una tabla de datos. Supongamos que a partir de la tabla original, queremos formar una nueva tabla con las variables: tailnum, manufacturer y seats

Código

select(planes, tailnum, manufacturer, seats)

# A tibble: 3,322 × 3
   tailnum manufacturer     seats
   <chr>   <chr>            <int>
 1 N10156  EMBRAER             55
 2 N102UW  AIRBUS INDUSTRIE   182
 3 N103US  AIRBUS INDUSTRIE   182
 4 N104UW  AIRBUS INDUSTRIE   182
 5 N10575  EMBRAER             55
 6 N105UW  AIRBUS INDUSTRIE   182
 7 N107US  AIRBUS INDUSTRIE   182
 8 N108UW  AIRBUS INDUSTRIE   182
 9 N109UW  AIRBUS INDUSTRIE   182
10 N110UW  AIRBUS INDUSTRIE   182
# ℹ 3,312 more rows
…
